<?xml version="1.0" encoding="UTF-8" standalone="no"?>
<svg
   xmlns:dc="http://purl.org/dc/elements/1.1/"
   xmlns:cc="http://creativecommons.org/ns#"
   xmlns:rdf="http://www.w3.org/1999/02/22-rdf-syntax-ns#"
   xmlns:svg="http://www.w3.org/2000/svg"
   xmlns="http://www.w3.org/2000/svg"
   xmlns:sodipodi="http://sodipodi.sourceforge.net/DTD/sodipodi-0.dtd"
   xmlns:inkscape="http://www.inkscape.org/namespaces/inkscape"
   inkscape:version="1.0 (4035a4fb49, 2020-05-01)"
   sodipodi:docname="deleteHashCodeSpec.svg"
   version="1.1"
   id="svg2"
   xml:space="preserve"
   width="457.16373"
   height="211.67999"
   viewBox="0 0 457.16372 211.68"><sodipodi:namedview
     inkscape:document-rotation="0"
     inkscape:current-layer="g10"
     inkscape:window-maximized="1"
     inkscape:window-y="26"
     inkscape:window-x="0"
     inkscape:cy="162.88479"
     inkscape:cx="154.12987"
     inkscape:zoom="1.4579482"
     fit-margin-bottom="0"
     fit-margin-right="0"
     fit-margin-left="0"
     fit-margin-top="0"
     showgrid="false"
     id="namedview1139"
     inkscape:window-height="1017"
     inkscape:window-width="1920"
     inkscape:pageshadow="2"
     inkscape:pageopacity="0"
     guidetolerance="10"
     gridtolerance="10"
     objecttolerance="10"
     borderopacity="1"
     bordercolor="#666666"
     pagecolor="#ffffff" /><metadata
     id="metadata8"><rdf:RDF><cc:Work
         rdf:about=""><dc:format>image/svg+xml</dc:format><dc:type
           rdf:resource="http://purl.org/dc/dcmitype/StillImage" /><dc:title></dc:title></cc:Work></rdf:RDF></metadata><defs
     id="defs6"><clipPath
       clipPathUnits="userSpaceOnUse"
       id="clipPath30"><path
         inkscape:connector-curvature="0"
         d="m 39.96,792.93 v -750 H 558 v 750 z"
         id="path28"
         style="clip-rule:evenodd" /></clipPath><clipPath
       clipPathUnits="userSpaceOnUse"
       id="clipPath44"><path
         inkscape:connector-curvature="0"
         d="m 39.96,792.93 v -750 H 558 v 750 z"
         id="path42"
         style="clip-rule:evenodd" /></clipPath></defs><g
     id="g10"
     transform="matrix(1.3333333,0,0,-1.3333333,-89.759998,989.71998)">


<path
   inkscape:connector-curvature="0"
   d="m 67.92,741.69 h 116.4 V 722.97 H 67.92 Z"
   style="fill:#ffffcc;fill-opacity:1;fill-rule:nonzero;stroke:none"
   id="path52" /><path
   inkscape:connector-curvature="0"
   d="m 67.92,741.09 h 116.4 v 0.6 h -0.6 v -18.72 h 0.6 v 0.6 H 67.92 v -0.6 h 0.6 v 18.72 h -0.6 z m -0.6,0.6 v -18.72 -0.6 h 0.6 116.4 0.6 v 0.6 18.72 0.6 h -0.6 -116.4 -0.6 z"
   style="fill:#000000;fill-opacity:1;fill-rule:nonzero;stroke:none"
   id="path54" /><path
   inkscape:connector-curvature="0"
   d="m 67.92,727.53 h 116.4 0.24 v 0.6 h -0.24 -116.4 -0.36 v -0.6 z"
   style="fill:#000000;fill-opacity:1;fill-rule:nonzero;stroke:none"
   id="path56" /><text
   transform="matrix(1,0,0,-1,73.9224,731.4912)"
   style="font-variant:normal;font-weight:normal;font-size:7.2px;font-family:Arial;-inkscape-font-specification:Arial;writing-mode:lr-tb;fill:#000000;fill-opacity:1;fill-rule:nonzero;stroke:none"
   id="text60"><tspan
     x="0 2.0016 6.0047998 10.008 11.520238 13.521837 18.120369 21.600439 25.60364 29.520597 31.522198 33.600677 35.60228 40.080811 44.084007 48.000969 49.599369 51.600967 56.161129 59.641201 63.644402 67.561356 72.759758 76.681541 80.28154 83.881538 86.279144 87.877541 91.801849 93.803452 95.401848 99.405052"
     y="0"
     id="tspan58">faultType : FaultTypeDescription</tspan></text>

<path
   inkscape:connector-curvature="0"
   d="m 73.92,729.81 h 103.32 v 0.6 H 73.92 Z"
   style="fill:#000000;fill-opacity:1;fill-rule:nonzero;stroke:none"
   id="path62" /><path
   inkscape:connector-curvature="0"
   d="m 209.04,741.69 h 67.8 v -18.72 h -67.8 z"
   style="fill:#ffffcc;fill-opacity:1;fill-rule:nonzero;stroke:none"
   id="path64" /><path
   inkscape:connector-curvature="0"
   d="m 209.04,741.09 h 67.8 v 0.6 h -0.6 v -18.72 h 0.6 v 0.6 h -67.8 v -0.6 h 0.6 v 18.72 h -0.6 z m -0.6,0.6 v -18.72 -0.6 h 0.6 67.8 0.6 v 0.6 18.72 0.6 h -0.6 -67.8 -0.6 z"
   style="fill:#000000;fill-opacity:1;fill-rule:nonzero;stroke:none"
   id="path66" /><path
   inkscape:connector-curvature="0"
   d="m 209.04,727.53 h 67.8 0.24 v 0.6 h -0.24 -67.8 -0.36 v -0.6 z"
   style="fill:#000000;fill-opacity:1;fill-rule:nonzero;stroke:none"
   id="path68" /><text
   transform="matrix(1,0,0,-1,215.0424,731.4912)"
   style="font-variant:normal;font-weight:normal;font-size:7.2px;font-family:Arial;-inkscape-font-specification:Arial;writing-mode:lr-tb;fill:#000000;fill-opacity:1;fill-rule:nonzero;stroke:none"
   id="text72"><tspan
     x="0 2.3975999 6.4008002 7.9201584 11.923358 13.924958 15.926558 18.00036 22.802759 24.804359 28.80756 34.680702 36.279102 39.879101 45.000908 49.004108 50.521019"
     y="0"
     id="tspan70">rule : AtomicRule</tspan></text>

<path
   inkscape:connector-curvature="0"
   d="m 215.04,729.81 h 54.48 v 0.6 h -54.48 z"
   style="fill:#000000;fill-opacity:1;fill-rule:nonzero;stroke:none"
   id="path74" /><text
   transform="matrix(1,0,0,-1,190.3248,723.6864)"
   style="font-variant:normal;font-weight:normal;font-size:7.2px;font-family:Arial;-inkscape-font-specification:Arial;writing-mode:lr-tb;fill:#000000;fill-opacity:1;fill-rule:nonzero;stroke:none"
   id="text78"><tspan
     x="0 2.3975999 6.4008002 7.9201584"
     y="0"
     id="tspan76">rule</tspan></text>

<path
   inkscape:connector-curvature="0"
   d="m 192.72,732.09 h 16.32 0.24 v 0.6 h -0.24 -16.32 -0.24 v -0.6 z"
   style="fill:#000000;fill-opacity:1;fill-rule:nonzero;stroke:none"
   id="path80" /><path
   inkscape:connector-curvature="0"
   d="m 183.96,732.33 4.8,-3 4.2,3 -4.2,3 z"
   style="fill:#000000;fill-opacity:1;fill-rule:evenodd;stroke:none"
   id="path82" /><path
   inkscape:connector-curvature="0"
   d="m 183.84,732.09 4.8,-3 0.12,-0.12 0.24,0.12 4.2,3 0.36,0.24 -0.36,0.24 -4.2,3 -0.24,0.12 -0.12,-0.12 -4.8,-3 -0.36,-0.24 z m 0.36,0 4.8,3 -0.24,0.24 -0.12,-0.24 4.2,-3 0.12,0.24 -0.12,0.24 -4.2,-3 0.12,-0.24 0.24,0.24 -4.8,3 -0.24,-0.24 z"
   style="fill:#000000;fill-opacity:1;fill-rule:nonzero;stroke:none"
   id="path84" /><path
   inkscape:connector-curvature="0"
   d="m 309.6,741.69 h 79.2 v -18.72 h -79.2 z"
   style="fill:#ffffcc;fill-opacity:1;fill-rule:nonzero;stroke:none"
   id="path86" /><path
   inkscape:connector-curvature="0"
   d="m 309.6,741.09 h 79.2 v 0.6 h -0.6 v -18.72 h 0.6 v 0.6 h -79.2 v -0.6 h 0.6 v 18.72 h -0.6 z m -0.6,0.6 v -18.72 -0.6 h 0.6 79.2 0.6 v 0.6 18.72 0.6 h -0.6 -79.2 -0.6 z"
   style="fill:#000000;fill-opacity:1;fill-rule:nonzero;stroke:none"
   id="path88" /><path
   inkscape:connector-curvature="0"
   d="m 309.6,727.53 h 79.2 0.24 v 0.6 h -0.24 -79.2 -0.36 v -0.6 z"
   style="fill:#000000;fill-opacity:1;fill-rule:nonzero;stroke:none"
   id="path90" /><text
   transform="matrix(1,0,0,-1,315.6048,731.4912)"
   style="font-variant:normal;font-weight:normal;font-size:7.2px;font-family:Arial;-inkscape-font-specification:Arial;writing-mode:lr-tb;fill:#000000;fill-opacity:1;fill-rule:nonzero;stroke:none"
   id="text94"><tspan
     x="0 2.3975999 6.4008002 7.9201584 11.923358 17.04034 21.043541 24.960499 26.962099 30.9653 34.5653 36.566898 38.640781 40.64238 42.720863 47.919262 51.841045 55.844242 57.845844 61.849045 65.449043"
     y="0"
     id="tspan92">ruleContext : Context</tspan></text>

<path
   inkscape:connector-curvature="0"
   d="m 315.6,729.81 h 67.44 v 0.6 H 315.6 Z"
   style="fill:#000000;fill-opacity:1;fill-rule:nonzero;stroke:none"
   id="path96" /><text
   transform="matrix(1,0,0,-1,281.7648,723.6864)"
   style="font-variant:normal;font-weight:normal;font-size:7.2px;font-family:Arial;-inkscape-font-specification:Arial;writing-mode:lr-tb;fill:#000000;fill-opacity:1;fill-rule:nonzero;stroke:none"
   id="text100"><tspan
     x="0 3.5999999 7.6032 11.520238 13.521837 17.525038 21.125038"
     y="0"
     id="tspan98">context</tspan></text>

<path
   inkscape:connector-curvature="0"
   d="m 285.24,732.09 h 24.36 0.24 v 0.6 H 309.6 285.24 285 v -0.6 z"
   style="fill:#000000;fill-opacity:1;fill-rule:nonzero;stroke:none"
   id="path102" /><path
   inkscape:connector-curvature="0"
   d="m 276.96,732.33 4.2,-3 4.2,3 -4.2,3 z"
   style="fill:#000000;fill-opacity:1;fill-rule:evenodd;stroke:none"
   id="path104" /><path
   inkscape:connector-curvature="0"
   d="m 276.84,732.09 4.2,-3 0.12,-0.12 0.24,0.12 4.2,3 0.36,0.24 -0.36,0.24 -4.2,3 -0.24,0.12 -0.12,-0.12 -4.2,-3 -0.36,-0.24 z m 0.36,0 4.2,3 -0.24,0.24 -0.12,-0.24 4.2,-3 0.12,0.24 -0.12,0.24 -4.2,-3 0.12,-0.24 0.24,0.24 -4.2,3 -0.24,-0.24 z"
   style="fill:#000000;fill-opacity:1;fill-rule:nonzero;stroke:none"
   id="path106" /><path
   inkscape:connector-curvature="0"
   d="m 319.56,696.09 h 58.8 v -18.6 h -58.8 z"
   style="fill:#ffffcc;fill-opacity:1;fill-rule:nonzero;stroke:none"
   id="path108" /><path
   inkscape:connector-curvature="0"
   d="m 319.56,695.49 h 58.8 v 0.6 h -0.6 v -18.6 h 0.6 v 0.6 h -58.8 v -0.6 h 0.6 v 18.6 h -0.6 z m -0.6,0.6 v -18.6 -0.6 h 0.6 58.8 0.6 v 0.6 18.6 0.6 h -0.6 -58.8 -0.6 z"
   style="fill:#000000;fill-opacity:1;fill-rule:nonzero;stroke:none"
   id="path110" /><path
   inkscape:connector-curvature="0"
   d="m 319.56,681.93 h 58.8 0.24 v 0.6 h -0.24 -58.8 -0.36 v -0.6 z"
   style="fill:#000000;fill-opacity:1;fill-rule:nonzero;stroke:none"
   id="path112" /><text
   transform="matrix(1,0,0,-1,325.5696,685.8864)"
   style="font-variant:normal;font-weight:normal;font-size:7.2px;font-family:Arial;-inkscape-font-specification:Arial;writing-mode:lr-tb;fill:#000000;fill-opacity:1;fill-rule:nonzero;stroke:none"
   id="text116"><tspan
     x="0 3.5999999 5.1984 9.120182 12.720182 16.320183 18.321783 20.400415 22.402016 26.002016 31.200415 32.798817 36.720749 40.320747"
     y="0"
     id="tspan114">class : JClass</tspan></text>

<path
   inkscape:connector-curvature="0"
   d="m 325.56,684.21 h 43.92 v 0.6 h -43.92 z"
   style="fill:#000000;fill-opacity:1;fill-rule:nonzero;stroke:none"
   id="path118" /><path
   inkscape:connector-curvature="0"
   d="m 309.6,625.23 h 76.2 v -27.72 h -76.2 z"
   style="fill:#ffffcc;fill-opacity:1;fill-rule:nonzero;stroke:none"
   id="path120" /><path
   inkscape:connector-curvature="0"
   d="m 309.6,624.63 h 76.2 v 0.6 h -0.6 v -27.72 h 0.6 v 0.6 h -76.2 v -0.6 h 0.6 v 27.72 h -0.6 z m -0.6,0.6 v -27.72 -0.6 h 0.6 76.2 0.6 v 0.6 27.72 0.6 h -0.6 -76.2 -0.6 z"
   style="fill:#000000;fill-opacity:1;fill-rule:nonzero;stroke:none"
   id="path122" /><text
   y="-601.22638"
   x="315.6048"
   transform="scale(1,-1)"
   style="font-variant:normal;font-weight:normal;font-size:7.2px;font-family:Arial;-inkscape-font-specification:Arial;writing-mode:lr-tb;fill:#000000;fill-opacity:1;fill-rule:nonzero;stroke:none"
   id="text126"><tspan
     x="315.6048 319.608 323.52496 329.40509 333.40826 335.40988 339.61469 341.61627 345.61948 349.62268 353.22269 357.12564 362.32404 366.24582 370.24902"
     y="-601.22638"
     id="tspan124">name = hashCode</tspan></text>

<path
   inkscape:connector-curvature="0"
   d="m 309.6,611.07 h 76.2 0.24 v 0.6 h -0.24 -76.2 -0.36 v -0.6 z"
   style="fill:#000000;fill-opacity:1;fill-rule:nonzero;stroke:none"
   id="path128" /><text
   y="-615.02881"
   x="315.6048"
   transform="scale(1,-1)"
   style="font-variant:normal;font-weight:normal;font-size:7.2px;font-family:Arial;-inkscape-font-specification:Arial;writing-mode:lr-tb;fill:#000000;fill-opacity:1;fill-rule:nonzero;stroke:none"
   id="text132"><tspan
     x="315.6048 319.608 323.52496 327.12497 331.12814 336.24521 340.24841 344.16537 348.16858 350.17017 352.17178 354.24557 360.1257 364.12891 366.13049 370.1337 374.04599"
     y="-615.02881"
     id="tspan130">hashCode : Method</tspan></text>

<path
   inkscape:connector-curvature="0"
   d="M 315.6,613.47 H 378 v 0.6 h -62.4 z"
   style="fill:#000000;fill-opacity:1;fill-rule:nonzero;stroke:none"
   id="path134" /><text
   y="-665.42877"
   x="387.6048"
   transform="scale(1,-1)"
   style="font-variant:normal;font-weight:normal;font-size:7.2px;font-family:Arial;-inkscape-font-specification:Arial;writing-mode:lr-tb;fill:#000000;fill-opacity:1;fill-rule:nonzero;stroke:none"
   id="text138"><tspan
     x="387.6048 391.2048 395.20801 399.12503 400.72345 404.64514 408.24515"
     y="-665.42877"
     id="tspan136">subject</tspan></text>

<path
   inkscape:connector-curvature="0"
   d="m 388.8,732.09 h 10.8 0.24 v 0.6 h -0.24 -10.8 -0.36 v -0.6 z"
   style="fill:#000000;fill-opacity:1;fill-rule:nonzero;stroke:none"
   id="path140" /><path
   inkscape:connector-curvature="0"
   d="M 399.24,732.35091 V 611.40909 611.07 h 0.6 v 0.33909 120.94182 0.33909 h -0.6 z"
   style="fill:#000000;fill-opacity:1;fill-rule:nonzero;stroke:none;stroke-width:0.999998"
   id="path142" /><path
   inkscape:connector-curvature="0"
   d="m 399.6,611.67 h -13.8 -0.36 v -0.6 h 0.36 13.8 0.24 v 0.6 z"
   style="fill:#000000;fill-opacity:1;fill-rule:nonzero;stroke:none"
   id="path144" /><path
   inkscape:connector-curvature="0"
   d="m 385.92,611.19 6.24,3.6 0.24,0.12 -0.24,0.48 -0.36,-0.12 -6.24,-3.6 -0.24,-0.12 0.36,-0.48 z"
   style="fill:#000000;fill-opacity:1;fill-rule:nonzero;stroke:none"
   id="path146" /><path
   inkscape:connector-curvature="0"
   d="m 385.56,611.19 6.24,-3.6 0.36,-0.12 0.24,0.48 -0.24,0.12 -6.24,3.6 -0.24,0.12 -0.36,-0.48 z"
   style="fill:#000000;fill-opacity:1;fill-rule:nonzero;stroke:none"
   id="path148" /><text
   y="-644.6712"
   x="359.22479"
   transform="scale(1,-1)"
   style="font-variant:normal;font-weight:normal;font-size:7.2px;font-family:Arial;-inkscape-font-specification:Arial;writing-mode:lr-tb;fill:#000000;fill-opacity:1;fill-rule:nonzero;stroke:none"
   id="text152"><tspan
     x="359.22479 365.10492 369.10812 371.10971 375.11292 379.02521 383.02841"
     y="-644.6712"
     id="tspan150">methods</tspan></text>

<path
   inkscape:connector-curvature="0"
   d="m 356.1,669.02134 v -43.93319 -0.20577 h 0.6 v 0.20577 43.93319 0.30866 h -0.6 z"
   style="fill:#000000;fill-opacity:1;fill-rule:nonzero;stroke:none;stroke-width:0.999999"
   id="path154" /><path
   inkscape:connector-curvature="0"
   d="m 356.46,677.73 -3,-4.2 3,-4.8 3,4.8 z"
   style="fill:#000000;fill-opacity:1;fill-rule:evenodd;stroke:none"
   id="path156" /><path
   inkscape:connector-curvature="0"
   d="m 356.22,677.85 -3,-4.2 -0.12,-0.12 0.12,-0.24 3,-4.8 0.24,-0.36 0.24,0.36 3,4.8 0.12,0.24 -0.12,0.12 -3,4.2 -0.24,0.36 z m 0,-0.36 3,-4.2 0.24,0.24 -0.24,0.12 -3,-4.8 0.24,-0.12 0.24,0.12 -3,4.8 -0.24,-0.12 0.24,-0.24 3,4.2 -0.24,0.24 z"
   style="fill:#000000;fill-opacity:1;fill-rule:nonzero;stroke:none"
   id="path158" /><text
   transform="matrix(1,0,0,-1,321.7248,700.8912)"
   style="font-variant:normal;font-weight:normal;font-size:7.2px;font-family:Arial;-inkscape-font-specification:Arial;writing-mode:lr-tb;fill:#000000;fill-opacity:1;fill-rule:nonzero;stroke:none"
   id="text162"><tspan
     x="0 3.5999999 7.6032 11.520238 13.521837 17.525038 21.125038 23.126638 27.929037 29.527437 33.530636 39.360802 43.364002 47.28096 49.282558"
     y="0"
     id="tspan160">contextElements</tspan></text>

<path
   inkscape:connector-curvature="0"
   d="m 348.72,714.57 v -18.48 -0.24 h 0.6 v 0.24 18.48 0.24 h -0.6 z"
   style="fill:#000000;fill-opacity:1;fill-rule:nonzero;stroke:none"
   id="path164" /><path
   inkscape:connector-curvature="0"
   d="m 348.96,723.33 -3,-4.8 3,-4.2 3,4.2 z"
   style="fill:#000000;fill-opacity:1;fill-rule:evenodd;stroke:none"
   id="path166" /><path
   inkscape:connector-curvature="0"
   d="m 348.72,723.45 -3,-4.8 -0.12,-0.12 0.12,-0.24 3,-4.2 0.24,-0.36 0.24,0.36 3,4.2 0.12,0.24 -0.12,0.12 -3,4.8 -0.24,0.36 z m 0,-0.36 3,-4.8 0.24,0.24 -0.24,0.12 -3,-4.2 0.24,-0.12 0.24,0.12 -3,4.2 -0.24,-0.12 0.24,-0.24 3,4.8 -0.24,0.24 z"
   style="fill:#000000;fill-opacity:1;fill-rule:nonzero;stroke:none"
   id="path168" /><path
   inkscape:connector-curvature="0"
   d="m 201.72,700.53 h 82.2 v -27.72 h -82.2 z"
   style="fill:#ffffcc;fill-opacity:1;fill-rule:nonzero;stroke:none"
   id="path170" /><path
   inkscape:connector-curvature="0"
   d="m 201.72,699.93 h 82.2 v 0.6 h -0.6 v -27.72 h 0.6 v 0.6 h -82.2 v -0.6 h 0.6 v 27.72 h -0.6 z m -0.6,0.6 v -27.72 -0.6 h 0.6 82.2 0.6 v 0.6 27.72 0.6 h -0.6 -82.2 -0.6 z"
   style="fill:#000000;fill-opacity:1;fill-rule:nonzero;stroke:none"
   id="path172" /><text
   transform="matrix(1,0,0,-1,207.7272,676.5264)"
   style="font-variant:normal;font-weight:normal;font-size:7.2px;font-family:Arial;-inkscape-font-specification:Arial;writing-mode:lr-tb;fill:#000000;fill-opacity:1;fill-rule:nonzero;stroke:none"
   id="text176"><tspan
     x="0 1.5984 5.5201106 9.1201105 10.718511 14.640293 18.643494 22.560452 26.160452 30.720613 34.723816 37.121414 41.040821 45.044022 47.04562 49.047222 53.252022 55.321114 57.322712 59.720314 63.723515"
     y="0"
     id="tspan174">includesTarget = true</tspan></text>

<path
   inkscape:connector-curvature="0"
   d="m 201.72,686.37 h 82.2 0.36 v 0.6 h -0.36 -82.2 -0.24 v -0.6 z"
   style="fill:#000000;fill-opacity:1;fill-rule:nonzero;stroke:none"
   id="path178" /><text
   transform="matrix(1,0,0,-1,207.7272,690.3288)"
   style="font-variant:normal;font-weight:normal;font-size:7.2px;font-family:Arial;-inkscape-font-specification:Arial;writing-mode:lr-tb;fill:#000000;fill-opacity:1;fill-rule:nonzero;stroke:none"
   id="text182"><tspan
     x="0 2.0016 4.0800815 6.0816817 8.1601629 13.358563 17.280346 20.880346 25.682745 29.685946 33.600677 38.79908 40.320812 44.324013 47.924015 51.524014 55.923214 57.521614 59.041195 61.042797 65.045998"
     y="0"
     id="tspan180">f : HasSubClassFilter</tspan></text>

<path
   inkscape:connector-curvature="0"
   d="m 207.72,688.65 h 67.44 v 0.6 h -67.44 z"
   style="fill:#000000;fill-opacity:1;fill-rule:nonzero;stroke:none"
   id="path184" /><text
   transform="matrix(1,0,0,-1,235.5624,707.0112)"
   style="font-variant:normal;font-weight:normal;font-size:7.2px;font-family:Arial;-inkscape-font-specification:Arial;writing-mode:lr-tb;fill:#000000;fill-opacity:1;fill-rule:nonzero;stroke:none"
   id="text188"><tspan
     x="0 2.0016 3.5999999 5.1984 7.1999998 11.2032 13.6008"
     y="0"
     id="tspan186">filters</tspan></text>

<path
   inkscape:connector-curvature="0"
   d="m 244.8,714.57 v -14.04 -0.24 h 0.6 v 0.24 14.04 0.24 h -0.6 z"
   style="fill:#000000;fill-opacity:1;fill-rule:nonzero;stroke:none"
   id="path190" /><path
   inkscape:connector-curvature="0"
   d="m 245.16,723.33 -3,-4.8 3,-4.2 3,4.2 z"
   style="fill:#000000;fill-opacity:1;fill-rule:evenodd;stroke:none"
   id="path192" /><path
   inkscape:connector-curvature="0"
   d="m 244.92,723.45 -3,-4.8 -0.12,-0.12 0.12,-0.24 3,-4.2 0.24,-0.36 0.24,0.36 3,4.2 0.12,0.24 -0.12,0.12 -3,4.8 -0.24,0.36 z m 0,-0.36 3,-4.8 0.24,0.24 -0.24,0.12 -3,-4.2 0.24,-0.12 0.24,0.12 -3,4.2 -0.24,-0.12 0.24,-0.24 3,4.8 -0.24,0.24 z"
   style="fill:#000000;fill-opacity:1;fill-rule:nonzero;stroke:none"
   id="path194" /><path
   inkscape:connector-curvature="0"
   d="m 267.84,658.29 h 80.4 v -18.6 h -80.4 z"
   style="fill:#ffffcc;fill-opacity:1;fill-rule:nonzero;stroke:none"
   id="path196" /><path
   inkscape:connector-curvature="0"
   d="m 267.84,657.69 h 80.4 v 0.6 h -0.6 v -18.6 h 0.6 v 0.6 h -80.4 v -0.6 h 0.6 v 18.6 h -0.6 z m -0.6,0.6 v -18.6 -0.6 h 0.6 80.4 0.6 v 0.6 18.6 0.6 h -0.6 -80.4 -0.6 z"
   style="fill:#000000;fill-opacity:1;fill-rule:nonzero;stroke:none"
   id="path198" /><path
   inkscape:connector-curvature="0"
   d="m 267.84,644.13 h 80.4 0.36 v 0.6 h -0.36 -80.4 -0.24 v -0.6 z"
   style="fill:#000000;fill-opacity:1;fill-rule:nonzero;stroke:none"
   id="path200" /><text
   transform="matrix(1,0,0,-1,273.8448,648.0864)"
   style="font-variant:normal;font-weight:normal;font-size:7.2px;font-family:Arial;-inkscape-font-specification:Arial;writing-mode:lr-tb;fill:#000000;fill-opacity:1;fill-rule:nonzero;stroke:none"
   id="text204"><tspan
     x="0 2.0016 3.5999999 5.1984 7.1999998 11.2032 13.6008 18.720381 22.723581 26.640539 28.642139 32.64534 36.245338 38.246941 40.32082 42.322422 44.400902 49.599304 53.521084 57.524284 59.525887 63.529083 67.129082"
     y="0"
     id="tspan202">filterContext : Context</tspan></text>

<path
   inkscape:connector-curvature="0"
   d="m 273.84,646.53 h 69.12 v 0.6 h -69.12 z"
   style="fill:#000000;fill-opacity:1;fill-rule:nonzero;stroke:none"
   id="path206" /><text
   transform="matrix(1,0,0,-1,296.5248,665.2512)"
   style="font-variant:normal;font-weight:normal;font-size:7.2px;font-family:Arial;-inkscape-font-specification:Arial;writing-mode:lr-tb;fill:#000000;fill-opacity:1;fill-rule:nonzero;stroke:none"
   id="text210"><tspan
     x="0 3.5999999 7.6032 11.520238 13.521837 17.525038 21.125038"
     y="0"
     id="tspan208">context</tspan></text>

<path
   inkscape:connector-curvature="0"
   d="m 292.44,677.49 h 15.48 0.24 v 0.6 h -0.24 -15.48 -0.24 v -0.6 z"
   style="fill:#000000;fill-opacity:1;fill-rule:nonzero;stroke:none"
   id="path212" /><path
   inkscape:connector-curvature="0"
   d="m 307.56,677.73 v -19.44 -0.24 h 0.6 v 0.24 19.44 0.36 h -0.6 z"
   style="fill:#000000;fill-opacity:1;fill-rule:nonzero;stroke:none"
   id="path214" /><path
   inkscape:connector-curvature="0"
   d="m 284.16,677.73 4.2,-3 4.2,3 -4.2,3 z"
   style="fill:#000000;fill-opacity:1;fill-rule:evenodd;stroke:none"
   id="path216" /><path
   inkscape:connector-curvature="0"
   d="m 284.04,677.49 4.2,-3 0.12,-0.12 0.24,0.12 4.2,3 0.36,0.24 -0.36,0.24 -4.2,3 -0.24,0.12 -0.12,-0.12 -4.2,-3 -0.36,-0.24 z m 0.36,0 4.2,3 -0.24,0.24 -0.12,-0.24 4.2,-3 0.12,0.24 -0.12,0.24 -4.2,-3 0.12,-0.24 0.24,0.24 -4.2,3 -0.24,-0.24 z"
   style="fill:#000000;fill-opacity:1;fill-rule:nonzero;stroke:none"
   id="path218" /><path
   inkscape:connector-curvature="0"
   d="m 136.2,658.29 h 73.2 v -18.6 h -73.2 z"
   style="fill:#ffffcc;fill-opacity:1;fill-rule:nonzero;stroke:none"
   id="path220" /><path
   inkscape:connector-curvature="0"
   d="m 136.2,657.69 h 73.2 v 0.6 h -0.6 v -18.6 h 0.6 v 0.6 h -73.2 v -0.6 h 0.6 v 18.6 h -0.6 z m -0.6,0.6 v -18.6 -0.6 h 0.6 73.2 0.6 v 0.6 18.6 0.6 h -0.6 -73.2 -0.6 z"
   style="fill:#000000;fill-opacity:1;fill-rule:nonzero;stroke:none"
   id="path222" /><path
   inkscape:connector-curvature="0"
   d="m 136.2,644.13 h 73.2 0.36 v 0.6 h -0.36 -73.2 -0.24 v -0.6 z"
   style="fill:#000000;fill-opacity:1;fill-rule:nonzero;stroke:none"
   id="path224" /><text
   transform="matrix(1,0,0,-1,142.2,648.0864)"
   style="font-variant:normal;font-weight:normal;font-size:7.2px;font-family:Arial;-inkscape-font-specification:Arial;writing-mode:lr-tb;fill:#000000;fill-opacity:1;fill-rule:nonzero;stroke:none"
   id="text228"><tspan
     x="0 3.5999999 7.6032 11.520238 16.718637 18.240372 22.243572 25.843573 29.443571 31.445171 33.446774 35.520725 39.120724 44.319126 45.840931 49.844131 53.44413"
     y="0"
     id="tspan226">subClass : JClass</tspan></text>

<path
   inkscape:connector-curvature="0"
   d="m 142.2,646.53 h 57 v 0.6 h -57 z"
   style="fill:#000000;fill-opacity:1;fill-rule:nonzero;stroke:none"
   id="path230" /><text
   transform="matrix(1,0,0,-1,211.3272,640.2888)"
   style="font-variant:normal;font-weight:normal;font-size:7.2px;font-family:Arial;-inkscape-font-specification:Arial;writing-mode:lr-tb;fill:#000000;fill-opacity:1;fill-rule:nonzero;stroke:none"
   id="text234"><tspan
     x="0 3.5999999 7.6032 11.520238 13.521837 17.525038 21.125038 23.126638 27.929037 29.527437 33.530636 39.360802 43.364002 47.28096 49.282558"
     y="0"
     id="tspan232">contextElements</tspan></text>

<path
   inkscape:connector-curvature="0"
   d="m 259.44,649.29 h -50.04 -0.24 v -0.6 h 0.24 50.04 0.24 v 0.6 z"
   style="fill:#000000;fill-opacity:1;fill-rule:nonzero;stroke:none"
   id="path236" /><path
   inkscape:connector-curvature="0"
   d="m 267.96,648.93 -4.2,3 -4.2,-3 4.2,-3 z"
   style="fill:#000000;fill-opacity:1;fill-rule:evenodd;stroke:none"
   id="path238" /><path
   inkscape:connector-curvature="0"
   d="m 268.2,649.17 -4.2,3 -0.24,0.12 -0.12,-0.12 -4.2,-3 -0.36,-0.24 0.36,-0.24 4.2,-3 0.12,-0.12 0.24,0.12 4.2,3 0.36,0.24 z m -0.36,0 -4.2,-3 0.12,-0.24 0.24,0.24 -4.2,3 -0.24,-0.24 0.24,-0.24 4.2,3 -0.24,0.24 -0.12,-0.24 4.2,-3 0.12,0.24 z"
   style="fill:#000000;fill-opacity:1;fill-rule:nonzero;stroke:none"
   id="path240" /><text
   transform="matrix(1,0,0,-1,156.6,668.6064)"
   style="font-variant:normal;font-weight:normal;font-size:7.2px;font-family:Arial;-inkscape-font-specification:Arial;writing-mode:lr-tb;fill:#000000;fill-opacity:1;fill-rule:nonzero;stroke:none"
   id="text244"><tspan
     x="0 3.5999999 7.6032 11.520238 16.718637 18.240372 22.243572 25.843573"
     y="0"
     id="tspan242">subClass</tspan></text>

<path
   inkscape:connector-curvature="0"
   d="m 201.72,687.57 h -20.04 -0.36 v -0.6 h 0.36 20.04 0.36 v 0.6 z"
   style="fill:#000000;fill-opacity:1;fill-rule:nonzero;stroke:none"
   id="path246" /><path
   inkscape:connector-curvature="0"
   d="m 181.32,687.21 v -28.92 -0.24 h 0.6 v 0.24 28.92 0.36 h -0.6 z"
   style="fill:#000000;fill-opacity:1;fill-rule:nonzero;stroke:none"
   id="path248" /><path
   inkscape:connector-curvature="0"
   d="m 181.92,658.53 -3.6,6.24 -0.12,0.24 -0.6,-0.36 0.24,-0.24 3.6,-6.24 0.12,-0.24 0.48,0.24 z"
   style="fill:#000000;fill-opacity:1;fill-rule:nonzero;stroke:none"
   id="path250" /><path
   inkscape:connector-curvature="0"
   d="m 181.92,658.17 3.6,6.24 0.12,0.24 -0.48,0.36 -0.12,-0.24 -3.6,-6.24 -0.24,-0.36 0.6,-0.24 z"
   style="fill:#000000;fill-opacity:1;fill-rule:nonzero;stroke:none"
   id="path252" /><text
   transform="matrix(1,0,0,-1,288.0072,696.9312)"
   style="font-variant:normal;font-weight:normal;font-size:7.2px;font-family:Arial;-inkscape-font-specification:Arial;writing-mode:lr-tb;fill:#000000;fill-opacity:1;fill-rule:nonzero;stroke:none"
   id="text256"><tspan
     x="0 2.0016 6.0047998 8.4024 12.4056 16.320333"
     y="0"
     id="tspan254">target</tspan></text>

<path
   inkscape:connector-curvature="0"
   d="m 283.92,693.09 h 35.64 0.24 v 0.6 h -0.24 -35.64 -0.24 v -0.6 z"
   style="fill:#000000;fill-opacity:1;fill-rule:nonzero;stroke:none"
   id="path258" /><path
   inkscape:connector-curvature="0"
   d="m 319.44,693.57 -6.24,-3.6 -0.24,-0.12 0.24,-0.48 0.24,0.12 6.24,3.6 0.24,0.12 -0.24,0.48 z"
   style="fill:#000000;fill-opacity:1;fill-rule:nonzero;stroke:none"
   id="path260" /><path
   inkscape:connector-curvature="0"
   d="m 319.68,693.57 -6.24,3.6 -0.24,0.12 -0.24,-0.48 0.24,-0.12 6.24,-3.6 0.24,-0.12 0.24,0.48 z"
   style="fill:#000000;fill-opacity:1;fill-rule:nonzero;stroke:none"
   id="path262" /><path
   inkscape:connector-curvature="0"
   d="m 149.52,619.23 h 64.2 v -27.72 h -64.2 z"
   style="fill:#ffffcc;fill-opacity:1;fill-rule:nonzero;stroke:none"
   id="path264" /><path
   inkscape:connector-curvature="0"
   d="m 149.52,618.63 h 64.2 v 0.6 h -0.6 v -27.72 h 0.6 v 0.6 h -64.2 v -0.6 h 0.6 v 27.72 h -0.6 z m -0.6,0.6 v -27.72 -0.6 h 0.6 64.2 0.6 v 0.6 27.72 0.6 h -0.6 -64.2 -0.6 z"
   style="fill:#000000;fill-opacity:1;fill-rule:nonzero;stroke:none"
   id="path266" /><text
   y="-595.22638"
   x="155.52"
   transform="scale(1,-1)"
   style="font-variant:normal;font-weight:normal;font-size:7.2px;font-family:Arial;-inkscape-font-specification:Arial;writing-mode:lr-tb;fill:#000000;fill-opacity:1;fill-rule:nonzero;stroke:none"
   id="text270"><tspan
     x="155.52 159.52319 163.44016 169.32028 173.32347 175.32507 179.52988 181.53148 185.53467 189.53787 193.44077 197.44397 198.96088"
     y="-595.22638"
     id="tspan268">name = equals</tspan></text>

<path
   inkscape:connector-curvature="0"
   d="m 149.52,605.07 h 64.2 0.36 v 0.6 h -0.36 -64.2 -0.24 v -0.6 z"
   style="fill:#000000;fill-opacity:1;fill-rule:nonzero;stroke:none"
   id="path272" /><text
   y="-609.02881"
   x="155.52"
   transform="scale(1,-1)"
   style="font-variant:normal;font-weight:normal;font-size:7.2px;font-family:Arial;-inkscape-font-specification:Arial;writing-mode:lr-tb;fill:#000000;fill-opacity:1;fill-rule:nonzero;stroke:none"
   id="text276"><tspan
     x="155.52 159.52319 163.44016 167.44336 171.36032 172.95871 176.55872 178.56032 180.56192 182.64055 188.52066 192.52386 194.52547 198.52867 202.44095"
     y="-609.02881"
     id="tspan274">equals : Method</tspan></text>

<path
   inkscape:connector-curvature="0"
   d="m 155.52,607.47 h 50.88 v 0.6 h -50.88 z"
   style="fill:#000000;fill-opacity:1;fill-rule:nonzero;stroke:none"
   id="path278" /><text
   y="-625.28882"
   x="142.9248"
   transform="scale(1,-1)"
   style="font-variant:normal;font-weight:normal;font-size:7.2px;font-family:Arial;-inkscape-font-specification:Arial;writing-mode:lr-tb;fill:#000000;fill-opacity:1;fill-rule:nonzero;stroke:none"
   id="text282"><tspan
     x="142.9248 148.80492 152.80812 154.80972 158.81291 162.7252 166.72841"
     y="-625.28882"
     id="tspan280">methods</tspan></text>

<path
   inkscape:connector-curvature="0"
   d="m 172.32,631.21824 -0.12,-11.63882 v -0.20784 h 0.6 v 0.20784 l 0.12,11.63882 V 631.53 h -0.6 z"
   style="fill:#000000;fill-opacity:1;fill-rule:nonzero;stroke:none;stroke-width:1"
   id="path284" /><path
   inkscape:connector-curvature="0"
   d="m 172.56,639.93 -3,-4.2 3,-4.2 3,4.2 z"
   style="fill:#000000;fill-opacity:1;fill-rule:evenodd;stroke:none"
   id="path286" /><path
   inkscape:connector-curvature="0"
   d="m 172.32,640.05 -3,-4.2 -0.12,-0.12 0.12,-0.24 3,-4.2 0.24,-0.36 0.24,0.36 3,4.2 0.12,0.24 -0.12,0.12 -3,4.2 -0.24,0.36 z m 0,-0.36 3,-4.2 0.24,0.24 -0.24,0.12 -3,-4.2 0.24,-0.12 0.24,0.12 -3,4.2 -0.24,-0.12 0.24,-0.24 3,4.2 -0.24,0.24 z"
   style="fill:#000000;fill-opacity:1;fill-rule:nonzero;stroke:none"
   id="path288" /><text
   y="-594.28192"
   x="99.736328"
   transform="scale(1,-1)"
   style="font-variant:normal;font-weight:normal;font-size:7.2px;font-family:Arial;-inkscape-font-specification:Arial;writing-mode:lr-tb;fill:#000000;fill-opacity:1;fill-rule:nonzero;stroke:none"
   id="text292"><tspan
     x="99.736328 101.73793 105.74113 108.13873 112.14193 116.05666"
     y="-594.28192"
     id="tspan290">target</tspan></text>

<path
   inkscape:connector-curvature="0"
   d="M 122.04,681.94376 V 583.75624 583.53 h 0.6 v 0.22624 98.18752 0.22624 h -0.6 z"
   style="fill:#000000;fill-opacity:1;fill-rule:nonzero;stroke:none;stroke-width:0.999995"
   id="path294" /><path
   inkscape:connector-curvature="0"
   d="M 122.4,583.53 H 347.64 348 v 0.6 h -0.36 -225.24 -0.36 v -0.6 z"
   style="fill:#000000;fill-opacity:1;fill-rule:nonzero;stroke:none"
   id="path296" /><path
   inkscape:connector-curvature="0"
   d="m 348,583.77 v 12.24 0.36 h -0.6 v -0.36 -12.24 -0.24 h 0.6 z"
   style="fill:#000000;fill-opacity:1;fill-rule:nonzero;stroke:none"
   id="path298" /><path
   inkscape:connector-curvature="0"
   d="m 347.4,596.87558 3.6,-6.24 0.12,-0.24 0.6,0.36 -0.24,0.24 -3.6,6.24 -0.12,0.24 -0.48,-0.36 z"
   style="fill:#000000;fill-opacity:1;fill-rule:nonzero;stroke:none"
   id="path300" /><path
   inkscape:connector-curvature="0"
   d="m 347.4,597.23558 -3.6,-6.24 -0.12,-0.24 0.48,-0.36 0.12,0.24 3.6,6.24 0.24,0.24 -0.6,0.36 z"
   style="fill:#000000;fill-opacity:1;fill-rule:nonzero;stroke:none"
   id="path302" /><path
   inkscape:connector-curvature="0"
   d="m 72.84,700.53 h 99 v -18.6 h -99 z"
   style="fill:#ffffcc;fill-opacity:1;fill-rule:nonzero;stroke:none"
   id="path304" /><path
   inkscape:connector-curvature="0"
   d="m 72.84,699.93 h 99 v 0.6 h -0.6 v -18.6 h 0.6 v 0.6 h -99 v -0.6 h 0.6 v 18.6 h -0.6 z m -0.6,0.6 v -18.6 -0.6 h 0.6 99 0.6 v 0.6 18.6 0.6 h -0.6 -99 -0.6 z"
   style="fill:#000000;fill-opacity:1;fill-rule:nonzero;stroke:none"
   id="path306" /><path
   inkscape:connector-curvature="0"
   d="m 72.84,686.37 h 99 0.36 v 0.6 h -0.36 -99 -0.24 v -0.6 z"
   style="fill:#000000;fill-opacity:1;fill-rule:nonzero;stroke:none"
   id="path308" /><text
   transform="matrix(1,0,0,-1,78.84,690.3288)"
   style="font-variant:normal;font-weight:normal;font-size:7.2px;font-family:Arial;-inkscape-font-specification:Arial;writing-mode:lr-tb;fill:#000000;fill-opacity:1;fill-rule:nonzero;stroke:none"
   id="text312"><tspan
     x="0 4.0032001 7.9201584 9.5185585 13.440269 15.441869 19.445068 24.247469 27.847469 29.84907 31.44747 35.450668 39.360794 41.362396 43.440876 45.442474 50.640877 54.644077 56.161137 60.164337 62.165939 66.169136 70.971535 74.571541 76.573135 78.171539 82.081665"
     y="0"
     id="tspan310">deleteAction : DeleteAction</tspan></text>

<path
   inkscape:connector-curvature="0"
   d="m 78.84,688.65 h 86.04 v 0.6 H 78.84 Z"
   style="fill:#000000;fill-opacity:1;fill-rule:nonzero;stroke:none"
   id="path314" /><text
   transform="matrix(1,0,0,-1,109.8,703.1664)"
   style="font-variant:normal;font-weight:normal;font-size:7.2px;font-family:Arial;-inkscape-font-specification:Arial;writing-mode:lr-tb;fill:#000000;fill-opacity:1;fill-rule:nonzero;stroke:none"
   id="text318"><tspan
     x="0 4.0032001 7.6032 9.6048002 11.2032 15.12031 19.12351"
     y="0"
     id="tspan316">actions</tspan></text>

<path
   inkscape:connector-curvature="0"
   d="m 121.44,714.57 0.36,-14.04 v -0.24 h 0.6 v 0.24 l -0.36,14.04 v 0.24 h -0.6 z"
   style="fill:#000000;fill-opacity:1;fill-rule:nonzero;stroke:none"
   id="path320" /><path
   inkscape:connector-curvature="0"
   d="m 121.56,723.33 -3,-4.8 3,-4.2 3,4.8 z"
   style="fill:#000000;fill-opacity:1;fill-rule:evenodd;stroke:none"
   id="path322" /><path
   inkscape:connector-curvature="0"
   d="m 121.32,723.45 -3,-4.8 -0.12,-0.12 0.12,-0.24 3,-4.2 0.24,-0.36 0.24,0.36 3,4.8 0.12,0.24 -0.12,0.12 -3,4.2 -0.24,0.36 z m 0,-0.36 3,-4.2 0.24,0.24 -0.24,0.12 -3,-4.8 0.24,-0.12 0.24,0.12 -3,4.2 -0.24,-0.12 0.24,-0.24 3,4.8 -0.24,0.24 z"
   style="fill:#000000;fill-opacity:1;fill-rule:nonzero;stroke:none"
   id="path324" /></g></svg>
